clearteams

team "Sky"{
	textcolor "blue"
	playercolor "55 77 cc"
}
team "Earth"{
	textcolor "brown"
	playercolor "80 50 10"
}
team "Thorns"{
	textcolor "green"
	playercolor "6a 99 44"
}
team "Rose"{
	textcolor "brick"
	playercolor "ff c0 f0"
}

